^C:\USERS\DANIL\SOURCE\REPOS\SKILLBOXHM1\SKILLBOXHM1\MAIN.CPP
C:\USERS\DANIL\SOURCE\REPOS\SKILLBOXHM1\SKILLBOXHM1\X64\DEBUG\VC143.PDB
C:\USERS\DANIL\SOURCE\REPOS\SKILLBOXHM1\SKILLBOXHM1\X64\DEBUG\VC143.IDB
C:\USERS\DANIL\SOURCE\REPOS\SKILLBOXHM1\SKILLBOXHM1\X64\DEBUG\MAIN.OBJ
